{
  "images" : [
    {
      "idiom" : "iphone",
      "filename" : "addTask32@x1.png",
      "scale" : "1x"
    },
    {
      "idiom" : "iphone",
      "filename" : "addTask64@x2.png",
      "scale" : "2x"
    },
    {
      "idiom" : "iphone",
      "filename" : "addTask64@x2-1.png",
      "scale" : "3x"
    }
  ],
  "info" : {
    "version" : 1,
    "author" : "xcode"
  }
}